<svg xmlns="http://www.w3.org/2000/svg" width="28" height="28" viewBox="0 0 28 28">
  <g id="Group_5294" data-name="Group 5294" transform="translate(18866 -1632)">
    <rect id="Rectangle_628" data-name="Rectangle 628" width="28" height="28" transform="translate(-18866 1632)" fill="none"/>
    <g id="Group_5755" data-name="Group 5755" transform="translate(-2.022 -1.878)">
      <path id="Path_1017" data-name="Path 1017" d="M176,40h5.023v5.023" transform="translate(-19020.9 1597.879)" fill="none" stroke="#fff" stroke-linecap="round" stroke-linejoin="round" stroke-width="1"/>
      <path id="Path_1018" data-name="Path 1018" d="M45.023,181.023H40V176" transform="translate(-18899.977 1476.955)" fill="none" stroke="#fff" stroke-linecap="round" stroke-linejoin="round" stroke-width="1"/>
      <path id="Path_1019" data-name="Path 1019" d="M181.023,176v5.023H176" transform="translate(-19020.9 1476.955)" fill="none" stroke="#fff" stroke-linecap="round" stroke-linejoin="round" stroke-width="1"/>
      <path id="Path_1020" data-name="Path 1020" d="M40,45.023V40h5.023" transform="translate(-18899.977 1597.879)" fill="none" stroke="#fff" stroke-linecap="round" stroke-linejoin="round" stroke-width="1"/>
      <rect id="Rectangle_629" data-name="Rectangle 629" width="10" height="10" transform="translate(-18855 1643)" fill="none" stroke="#fff" stroke-linecap="round" stroke-linejoin="round" stroke-width="1"/>
    </g>
  </g>
</svg>
